Warning: File bdc.prg has been replaced with newer version
Warning: File cgw_rrs2.prg has been replaced with newer version
Warning: File d72n47a0.prg has been replaced with newer version
Warning: File d72n47b0.prg has been replaced with newer version
Warning: File d73n57c0.prg has been replaced with newer version
Warning: File d73n57c0.prg has been replaced with newer version
Warning: File d73n57d0.prg has been replaced with newer version
Warning: File d73n57d0.prg has been replaced with newer version
Warning: File d73n57e0.prg has been replaced with newer version
Warning: File dme_bx8.prg has been replaced with newer version
Warning: File dsc_10.prg has been replaced with newer version
Warning: File dsc_10.prg has been replaced with newer version
